{"code":200,"message":"操作成功","data":{"headers":["预算数","本月实际","预算数","本月实际","预算数","本月实际","预算数","本月实际","预算数","本月实际","预算数","本月实际","预算数","本月实际","预算数","本月实际","预算数","本月实际","预算数","本月实际","预算数","本月实际","预算数","本月实际","预算数","本年实际","预算数","本月实际","预算数","本月实际"],"data":[{"行次":1.0,"Column_29":null,"Column_34":3.63183733249557E7,"Column_35":null,"Column_36":null,"Column_37":null,"Column_38":null,"Column_39":null,"Column_40":null,"Column_41":null,"Column_42":null,"Column_43":null,"Column_44":null,"Column_45":null,"Column_46":null,"Column_47":null,"Column_48":null,"Column_49":null,"Column_50":null,"Column_51":null,"Column_52":null,"Column_53":null,"Column_54":null,"Column_55":null,"Column_56":null,"Column_57":null,"Column_58":null,"Column_59":null,"2025-01-01":8761368.488000002,"2025-02-01":5436073.3432,"2025-03-01":7554667.029600001,"2025-04-01":1.05645043668E7,"2025-05-01":6819764.3604,"2025-06-01":9173161.825199999,"2025-07-01":7488253.400400001,"2025-08-01":8930334.275999999,"2025-09-01":1.2480104374799998E7,"2025-10-01":7988558.265214158,"2025-11-01":8507778.290399998,"2025-12-01":1.3174326798471004E7,"检验结果":0.0,"2025年合计":1.0687889481848516E8,"项　　　  　目":"一、营业收入","2025年合计逆向验证":1.0687889481848516E8},{"行次":null,"Column_29":null,"Column_34":0.0,"Column_35":null,"Column_36":null,"Column_37":null,"Column_38":null,"Column_39":null,"Column_40":null,"Column_41":null,"Column_42":null,"Column_43":null,"Column_44":null,"Column_45":null,"Column_46":null,"Column_47":null,"Column_48":null,"Column_49":null,"Column_50":null,"Column_51":null,"Column_52":null,"Column_53":null,"Column_54":null,"Column_55":null,"Column_56":null,"Column_57":null,"Column_58":null,"Column_59":null,"2025-01-01":2200703.086,"2025-02-01":1492040.9448000002,"2025-03-01":2480280.4412,"2025-04-01":3379438.0979999993,"2025-05-01":2218049.2224000003,"2025-06-01":2572936.9523999994,"2025-07-01":2425573.6415999993,"2025-08-01":2706613.8336000005,"2025-09-01":3795764.1875999984,"2025-10-01":2274206.425199999,"2025-11-01":2523772.3067999985,"2025-12-01":3645704.376000001,"检验结果":0.0,"2025年合计":3.1715083515599996E7,"项　　　  　目":"中式汤底","2025年合计逆向验证":3.1715083515599996E7}],"total":264,"page":0,"size":2,"totalPages":132},"timestamp":"2026-02-05T20:30:48.6267844","success":true}